{
	"metadata": {
		"comments": "Copyright © 2020 Atos, All rights reserved"
	},
	"$schema": "https://schema.management.azure.com/schemas/2015-01-01/deploymentTemplate.json#",
	"contentVersion": "1.0.0.0",
	"parameters": {
		"publicIpDetails": {
			"type": "array",
			"metadata": {
				"description": "Public Ip Address for Load Balancer and Virtual Machines"
			}
		},
		"productResourceGroup": {
			"type": "string",
			"metadata": {
				"description": "Details of productRG"
			}
		},
		"tags": {
			"type": "string",
			"defaultValue": "NA NA",
			"metadata": {
				"description": "Tag Name"
			}
		}
	},
	"variables": {
		"primaryPIPAddressName": "[concat(parameters('publicIpDetails')[0].pipname,'-pip')]"
	},
	"resources": [
		{
			"apiVersion": "2015-06-15",
			"type": "Microsoft.Network/publicIPAddresses",
			"name": "[concat(parameters('publicIpDetails')[copyIndex()].pipname,'-pip')]",
			"location": "[resourceGroup().location]",
			"tags": {
				"subcomponent": "[split(parameters('tags'),' ')[0]]",
				"subcomponent version": "[split(parameters('tags'),' ')[1]]",
				"subcomponent resource": "PublicIPaddress"
			},
			"properties": {
				"publicIPAllocationMethod": "[parameters('publicIpDetails')[copyIndex()].publicIPAddressType]",
				"dnsSettings": {
					"domainNameLabel": "[toLower(parameters('publicIpDetails')[copyIndex()].pipname)]"
				}
			},
			"copy": {
				"name": "publicip",
				"count": "[length(parameters('publicIpDetails'))]"
			}
		}
	],
	"outputs": {
		"ipaddress": {
			"type": "string",
			"value": "[reference(variables('primaryPIPAddressName')).IpAddress]"
		}
	}
}
