{
        "metadata": { 
              "comments": "Copyright © 2020 Atos, All rights reserved", 
        }, 
  "$schema": "https://schema.management.azure.com/schemas/2015-01-01/deploymentTemplate.json#",
  "contentVersion": "1.0.0.0",
  "parameters": {

    "OS": {
      "type": "string",
      "defaultValue": "CentOS",
      "allowedValues": [
        "CentOS",
        "Windows",
        "RHEL",
        "RHEL-AHS",
        "Windows-AHS"
      ],
      "metadata": {
        "description": "OS Platform for the VM"
      }
    },

    "virtualMachineCount": {
      "type": "int",
      "defaultValue": 3,
      "metadata": {
        "description": "Number of  virtual machines to be created"
      }
    },

    "keyVaultName": {
      "type": "string",
      "defaultValue": "testkeyJenarm12",
      "metadata": {
        "description": "Specifies the name of the key vault."
      }
    },
    "objectId": {
      "type": "string",
      "defaultValue": "af25eec6-70a8-4fec-8c14-47e684afa21d",
      "metadata": {
        "description": "Specifies the object ID of a user, service principal or security group in the Azure Active Directory tenant for the vault. The object ID must be unique for the list of access policies. Get it by using Get-AzADUser or Get-AzADServicePrincipal cmdlets."
      }
    },
    "keysPermissions": {
      "type": "array",
      "defaultValue": [
        "list"
      ],
      "metadata": {
        "description": "Specifies the permissions to keys in the vault. Valid values are: all, encrypt, decrypt, wrapKey, unwrapKey, sign, verify, get, list, create, update, import, delete, backup, restore, recover, and purge."
      }
    },
    "secretsPermissions": {
      "type": "array",
      "defaultValue": [
        "list"
      ],
      "metadata": {
        "description": "Specifies the permissions to secrets in the vault. Valid values are: all, get, list, set, delete, backup, restore, recover, and purge."
      }
    },
    "secretsObject": {
      "type": "secureObject",
      "defaultValue": "{}",
      "metadata": {
        "description": "Specifies all secrets {\"secretName\":\"\",\"secretValue\":\"\"} wrapped in a secure object."
      }
    }
  },
  "variables": {
    "location": "[resourceGroup().location]",
    "storageAccountName": "[concat('teststorage', uniquestring(resourceGroup().id))]",
    "nsgName": "Testnsggroup",
    "virtualNetworkName": "TestVNet",
    "subnetName": "TestSubnet",
    "addressPrefix": "10.0.0.0/16",
    "subnetPrefix": "10.0.0.0/24",
    "nsgId": "[resourceId('Microsoft.Network/networkSecurityGroups',variables('nsgName'))]",
    "publicIPAddressName": "TestPublicIp",
    "nicName": "TestNetworkInterface",
    "subnetRef": "[resourceId('Microsoft.Network/virtualNetworks/subnets', variables('virtualNetworkName'), variables('subnetName'))]",
    "tenantId": "[subscription().tenantId]",
    "availabilitySetName": "TestAvSet",
    "loadBalancerName": "TestLoadBalancer",
    "lbID": "[resourceId('Microsoft.Network/loadBalancers', variables('loadBalancerName'))]",
    "vmname": "TestVM",
    "domainNameLabel": "testdnsazure",
    "osdisk": "OSDisk",
    "datadisk1":"dataDiskOne",
    "datadisk2": "dataDiskTwo",
    "vhds": "vhds/",
    "vhd": ".vhd",
    "operatingSystemValues":{
    "CentOS": {
      "publisher": "OpenLogic",
      "offer": "CentOS-LVM",
      "sku": "7-LVM",
      "version": "latest"
    },
    "Windows": {
      "publisher": "MicrosoftWindowsServer",
      "offer": "WindowsServer",
      "sku": "2016-Datacenter",
      "version": "latest"
     },
     "RHEL":{
      "publisher": "Redhat",
      "offer": "RHEL",
      "sku": "7.4",
      "version": "latest"
     },
     "Windows-AHS": {
      "publisher": "atos",
      "offer": "ahs-image",
      "sku": "Windows-server-2016-standard",
      "version": "1.1.0"
     },
     "RHEL-AHS":{
      "publisher": "Redhat",
      "offer": "RHEL-Vanilla-7.5-Qemu-3.0-hardened-v12",
      "sku": "RedHat-Enterprise-7.5-Qemu-3.0-hardened-v12",
      "version": "7.5.0"
     }
   }
  },
  "resources": [
    {
      "name": "[variables('storageAccountName')]",
      "type": "Microsoft.Storage/storageAccounts",
      "apiVersion": "2016-01-01",
      "sku": {
        "name": "Standard_LRS"
      },
      "kind": "Storage",
      "location": "[variables('location')]",
      "properties": {}
    },
    {
      "apiVersion": "2015-06-15",
      "type": "Microsoft.Network/networkSecurityGroups",
      "name": "[variables('nsgName')]",
      "location": "[variables('location')]",
      "properties": {
        "securityRules": [
          {
            "name": "ssh-rule",
            "properties": {
              "description": "Allow ssh",
              "protocol": "Tcp",
              "sourcePortRange": "*",
              "destinationPortRange": "22",
              "sourceAddressPrefix": "*",
              "destinationAddressPrefix": "*",
              "access": "Allow",
              "priority": 200,
              "direction": "Inbound"
            }
          },
          {
            "name": "rdp-rule",
            "properties": {
              "description": "Allow RDP",
              "protocol": "Tcp",
              "sourcePortRange": "*",
              "destinationPortRange": "3389",
              "sourceAddressPrefix": "*",
              "destinationAddressPrefix": "*",
              "access": "Allow",
              "priority": 100,
              "direction": "Inbound"
            }
          }
        ]
      }
    },
    {
      "apiVersion": "2015-06-15",
      "type": "Microsoft.Network/virtualNetworks",
      "name": "[variables('virtualNetworkName')]",
      "location": "[variables('location')]",
      "dependsOn": [
        "[concat('Microsoft.Network/networkSecurityGroups/', variables('nsgName'))]"
      ],
      "properties": {
        "addressSpace": {
          "addressPrefixes": [
            "[variables('addressPrefix')]"
          ]
        },
        "subnets": [
          {
            "name": "[variables('subnetName')]",
            "properties": {
              "addressPrefix": "[variables('subnetPrefix')]",
              "networkSecurityGroup": {
                "id": "[variables('nsgId')]"
              }
            }
          }
        ]
      }
    },
    {
      "apiVersion": "2015-06-15",
      "type": "Microsoft.Network/publicIPAddresses",
      "name": "[concat(variables('publicIPAddressName'), copyIndex())]",
      "location": "[variables('location')]",
      "copy": {
        "name": "publicIpLoop",
        "count": "[parameters('virtualMachineCount')]"
      },
      "properties": {
        "publicIPAllocationMethod": "Dynamic",
        "dnsSettings": {
          "domainNameLabel": "[concat(variables('domainNameLabel'), copyIndex())]"
        }
      }
    },
    {
      "type": "Microsoft.Network/networkInterfaces",
      "apiVersion": "2015-06-15",
      "name": "[concat(variables('nicName'), copyIndex())]",
      "location": "[variables('location')]",
      "copy": {
        "name": "nicLoop",
        "count": "[parameters('virtualMachineCount')]"
      },
      "dependsOn": [
        "[resourceId('Microsoft.Network/virtualNetworks/', variables('virtualNetworkName'))]",
        "publicIpLoop",
        "[resourceId('Microsoft.Network/loadBalancers/', variables('loadBalancerName'))]"
      ],
      "properties": {
        "ipConfigurations": [
          {
            "name": "ipconfig1",
            "properties": {
              "privateIPAllocationMethod": "Dynamic",
              "publicIPAddress": {
                "id": "[resourceId('Microsoft.Network/publicIPAddresses',concat(variables('publicIPAddressName'), copyIndex()))]"
              },
              "subnet": {
                "id": "[variables('subnetRef')]"
              },
              "loadBalancerBackendAddressPools": [
                {
                  "id": "[concat(variables('lbID'), '/backendAddressPools/BackendPool1')]"
                }
              ]
            }
          }
        ]
      }
    },
    {
      "apiVersion": "2016-03-30",
      "type": "Microsoft.Compute/availabilitySets",
      "location": "[variables('location')]",
      "name": "[variables('availabilitySetName')]",
      "properties": {
        "PlatformUpdateDomainCount": 2,
        "PlatformFaultDomainCount": 2
      }
    },
    {
      "apiVersion": "2015-06-15",
      "type": "Microsoft.Network/loadBalancers",
      "name": "[variables('loadBalancerName')]",
      "location": "[variables('location')]",
      "dependsOn": [
        "[variables('virtualNetworkName')]"
      ],
      "properties": {
        "frontendIPConfigurations": [
          {
            "properties": {
              "subnet": {
                "id": "[variables('subnetRef')]"
              },
              "privateIPAddress": "10.0.0.6",
              "privateIPAllocationMethod": "Static"
            },
            "name": "LoadBalancerFrontend"
          }
        ],
        "backendAddressPools": [
          {
            "name": "BackendPool1"
          }
        ],
        "loadBalancingRules": [
          {
            "properties": {
              "frontendIPConfiguration": {
                "id": "[concat(resourceId('Microsoft.Network/loadBalancers', variables('loadBalancerName')), '/frontendIpConfigurations/LoadBalancerFrontend')]"
              },
              "backendAddressPool": {
                "id": "[concat(resourceId('Microsoft.Network/loadBalancers', variables('loadBalancerName')), '/backendAddressPools/BackendPool1')]"
              },
              "probe": {
                "id": "[concat(resourceId('Microsoft.Network/loadBalancers', variables('loadBalancerName')), '/probes/lbprobe')]"
              },
              "protocol": "Tcp",
              "frontendPort": 80,
              "backendPort": 80,
              "idleTimeoutInMinutes": 15
            },
            "Name": "lbrule"
          }
        ],
        "probes": [
          {
            "properties": {
              "protocol": "Tcp",
              "port": 80,
              "intervalInSeconds": 15,
              "numberOfProbes": 2
            },
            "name": "lbprobe"
          }
        ]
      }
    },
    {
      "type": "Microsoft.KeyVault/vaults",
      "name": "[parameters('keyVaultName')]",
      "location": "[variables('location')]",
      "apiVersion": "2016-10-01",
      "tags": {
        "displayName": "KeyVault"
      },
      "properties": {
        "enabledForDeployment": true,
        "enabledForTemplateDeployment": true,
        "enabledForDiskEncryption": true,
        "tenantId": "[variables('tenantId')]",
        "accessPolicies": [
          {
            "objectId": "[parameters('objectId')]",
            "tenantId": "[variables('tenantId')]",
            "permissions": {
              "keys": "[parameters('keysPermissions')]",
              "secrets": "[parameters('secretsPermissions')]"
            }
          }
        ],
        "sku": {
          "name": "Standard",
          "family": "A"
        },
        "networkAcls": {
          "value": {
            "defaultAction": "Allow",
            "bypass": "AzureServices"
          }
        }
      }
    },
    {
      "type": "Microsoft.KeyVault/vaults/secrets",
      "name": "[concat(parameters('keyVaultName'), '/', parameters('secretsObject').secrets[copyIndex()].secretName)]",
      "apiVersion": "2016-10-01",
      "dependsOn": [
        "[concat('Microsoft.KeyVault/vaults/', parameters('keyVaultName'))]"
      ],
      "copy": {
        "name": "secretsCopy",
        "count": "[length(parameters('secretsObject').secrets)]"
      },
      "properties": {
        "value": "[parameters('secretsObject').secrets[copyIndex()].secretValue]"
      }
    },
    {
      "type": "Microsoft.Compute/virtualMachines",
      "apiVersion": "2016-03-30",
      "name": "[concat(variables('vmname'), copyIndex())]",
      "location": "[variables('location')]",
      "copy": {
        "name": "virtualMachineLoop",
        "count": "[parameters('virtualMachineCount')]"
      },
      "dependsOn": [
        "[resourceId('Microsoft.Storage/storageAccounts/', variables('storageAccountName'))]",
        "nicLoop",
        "[resourceId('Microsoft.Compute/availabilitySets/', variables('availabilitySetName'))]"
      ],
      "properties": {
        "availabilitySet": {
          "id": "[resourceId('Microsoft.Compute/availabilitySets',variables('availabilitySetName'))]"
        },
        "hardwareProfile": {
          "vmSize": "Standard_A2"
        },
        "osProfile": {
          "computerName": "[variables('vmname')]",
          "adminUsername": "testuser",
          "adminPassword": "ARMTemplate@123"
        },
        "storageProfile": {
          "imageReference": {
            "publisher": "[variables('operatingSystemValues')[parameters('OS')].publisher]",
            "offer": "[variables('operatingSystemValues')[parameters('OS')].offer]",
            "sku": "[variables('operatingSystemValues')[parameters('OS')].sku]",
            "version": "[variables('operatingSystemValues')[parameters('OS')].version]"
          },
          "osDisk": {
            "name": "[concat(variables('osdisk'), copyIndex())]",
            "vhd": {
              "uri": "[concat(reference(resourceId('Microsoft.Storage/storageAccounts/', variables('storageAccountName'))).primaryEndpoints.blob, concat(variables('vhds'),variables('osdisk'),copyIndex(),variables('vhd')))]"
            },
            "caching": "ReadWrite",
            "createOption": "FromImage"
          },
          "dataDisks": [
            {
              "name": "[concat(variables('datadisk1'), copyIndex())]",
              "diskSizeGB": 30,
              "lun": 0,
              "vhd": {
                "uri": "[concat(reference(resourceId('Microsoft.Storage/storageAccounts/', variables('storageAccountName'))).primaryEndpoints.blob, concat(variables('vhds'),variables('datadisk1'),copyIndex(),variables('vhd')))]"
              }, 
              "createOption": "Empty"
            },

            {
              "name": "[concat(variables('datadisk2'), copyIndex())]",
              "diskSizeGB": 30,
              "lun": 1,
              "vhd": {
                "uri": "[concat(reference(resourceId('Microsoft.Storage/storageAccounts/', variables('storageAccountName'))).primaryEndpoints.blob, concat(variables('vhds'),variables('datadisk2'),copyIndex(),variables('vhd')))]"
              }, 
              "createOption": "Empty"
            }
          ]
        },
        "networkProfile": {
          "networkInterfaces": [
            {
              "id": "[resourceId('Microsoft.Network/networkInterfaces',concat(variables('nicName'),copyIndex()))]"
            }
          ]
        },
        "diagnosticsProfile": {
          "bootDiagnostics": {
            "enabled": true,
            "storageUri": "[reference(resourceId('Microsoft.Storage/storageAccounts/', variables('storageAccountName'))).primaryEndpoints.blob]"
          }
        }
      }
    }
  ],
  "outputs": {}
}