{
        "metadata": { 
              "comments": "Copyright © 2020 Atos, All rights reserved" 
        }, 
    "$schema": "http://schema.management.azure.com/schemas/2015-01-01/deploymentTemplate.json#",
    "contentVersion": "1.0.0.0",
    "parameters": {
        "subnetName": {
            "type": "String",
            "metadata": {
                "description": "Name of Subnet to be updated"
            }
        },
        "subnetAddressPrefixString": {
            "type": "string",
            "metadata": {
                "description": "Address Prefix of Subnet"
            }
        },
        "VNetName": {
            "type": "String",
            "metadata": {
                "description": "Virtual Network Name"
            }
        },
        "networkSecurityGroup": {
            "type": "Object",
            "metadata": {
                "description": "Name of Nsg required to be attached to Subnet"
            }
        }
    },
    "variables": {},
    "resources": [
        {
            "type": "Microsoft.Network/virtualNetworks/subnets",
            "name": "[concat(parameters('VNetName'), '/', parameters('subnetName'))]",
            "apiVersion": "2015-06-15",
            "location": "[resourceGroup().location]",
            "dependsOn": [],
            "properties": {
                "addressPrefix": "[parameters('subnetAddressPrefixString')]",
                "networkSecurityGroup": "[if(empty(parameters('networkSecurityGroup')), json('null'), parameters('networkSecurityGroup'))]"
            }
        }
    ]
}
