{
        "metadata": { 
              "comments": "Copyright © 2020 Atos, All rights reserved", 
        }, 
  "$schema": "https://schema.management.azure.com/schemas/2015-01-01/deploymentTemplate.json#",
  "contentVersion": "1.0.0.0",
  "parameters": {
    "vmExtensionName": {
      "type": "string",
      "metadata": {
        "description": "Unique DNS Name for the Storage Account where the Virtual Machine's disks will be placed."
      }
    },   
    "vmExtensionFiles": {
      "type": "array",
      "metadata": {
        "description": "Extension Files for the Virtual Machine."
      }
    },
    "commandToExecute": {
      "type": "String",
      "metadata": {
        "description": "Password for the Virtual Machine."
      }
    },
    "vmName": {
      "type": "String",
      "metadata": {
        "description": "Name of the VNET to add a subnet to"
      }
    },
    "assetLocation": {
      "type": "string",
      "metadata": {
        "description": "Asset Location "
      }
    },
    "ContainerSASToken": {
      "type": "SecureString",
      "metadata": {
        "description": "SAS Name"
      }
    },
    "vnetResourcegroup": {
      "type": "string"
    },
    "productResourcegroup": {
      "type": "string"
    },
    "CommonFolderLocation": {
      "type": "string"
    },
    "ProductFolderLocation": {
      "type": "string"
    },
    "ExtensionParameters": {
      "type": "string"
    },
    "antivirusInstallationUrl":{
      "type": "string"
    },
    "storageAccountKey": {
      "type": "SecureString"
    },
    "storageAccountName": {
      "type": "SecureString"
    },
    "activationKey": {
      "type": "string"
    },
    "org": {
      "type": "string"
    },
    "imageOffer": {
      "type": "string"
    }
  },

  "variables": {

    "singleQuote": "'",

    "vmExtensionFiles": {
      "copy": [
        {
          "name": "filesuri",
          "count": "[length(parameters('vmExtensionFiles'))]",
          "input": {
            "id": "[concat(parameters('assetLocation'),parameters('ProductFolderLocation'),'Scripts/',parameters('vmExtensionFiles')[copyIndex('filesuri')])]"
          }
        }
      ]
    }

  },
  "resources": [
    {
      "type": "Microsoft.Compute/virtualMachines/extensions",
      "name": "[concat(parameters('vmName'), '/',parameters('vmExtensionName'))]",
      "apiVersion": "2015-06-15",
      "location": "[resourceGroup().location]",
      "properties": {
        "publisher": "Microsoft.OSTCExtensions",
        "type": "CustomScriptForLinux",
        "typeHandlerVersion": "1.4",
        "autoUpgradeMinorVersion": true,
        "settings": {
          "fileUris": [
            "[variables('vmExtensionFiles').filesuri[0].id]"
          ]
        },
        "protectedSettings": {         
          "commandToExecute": "[if(greater(length(variables('vmExtensionFiles').filesuri),1),concat(parameters('commandToExecute'),' ',parameters('ExtensionParameters'),' ',parameters('activationkey'),' ',parameters('org'),' ',parameters('imageOffer')),concat(parameters('commandToExecute')))]",
          "storageAccountName": "[parameters('storageAccountName')]",
          "storageAccountKey": "[parameters('storageAccountKey')]"
        }
      }
    }
  ]
}
